{
  "testApp": {
    "api_url": "http://127.0.0.1:8440",
    "api_url_otp_confirm": "http://127.0.0.1:8440/security/loginotp/consent",
    "api_url_list_accounts": "http://127.0.0.1:8081/accounts/get/",
    "api_url_otp_device": "http://10.37.24.26:9443/commonauth/deviceotp",
    "api_url_wallet_otp": "http://127.0.0.1:8080",
    "api_url_otp_resend": "http://10.37.24.151:8150/iapi/security/v1/otp/resend",
    "api_url_otp_logins": "https://10.37.24.26:9443",
    "api_url_terms": "https://10.37.24.26:9443/commonauth/terms",
    "api_url_wallet_create_link": "http://127.0.0.1:8080",
    "api_url_commands": {
      "login":{
        "ERROR": "http://127.0.0.1:8440/ERROR",
        "CANCEL": "http://127.0.0.1:8440/CANCEL",
        "REGISTER": "http://127.0.0.1:8440/REGISTER",
        "FORGOT": "http://127.0.0.1:8440/FORGOT"
      },
      "loginOPT":{
        "ERROR": "http://127.0.0.1:8440/ERROR"
      },
      "firstTimePass":{
        "ERROR": "http://127.0.0.1:8440/ERROR"
      },
      "secretQuestion":{
        "ERROR": "http://127.0.0.1:8440/ERROR"
      },
      "otp":{
        "ERROR": "http://127.0.0.1:8440/ERROR",
        "CONFIRM": "http://127.0.0.1:8440/CONFIRM",
        "CLOSE": "http://127.0.0.1:8440/CLOSE"
      },
      "wallet": {
        "ERROR": "http://127.0.0.1:8440/ERROR",
        "CLOSE": "http://127.0.0.1:8440/CLOSE"
      }
    },
    "api_url_commands_type": "send",
    "pageStyle": {
      "mainBackground": "linear-gradient(to right, #2bba56, #4EA3F6)",
      "modal":{
        "backgroundPage": "#ffffff",
        "primaryColor": "#2bba56",
        "textColor": "#000000"
      },
      "login":{
        "backgroundPage": "#ffffff",
        "primaryColor": "#2bba56",
        "inputTextColor": "#4A4A4A",
        "linkColor": "#4EA3F6",
        "textColor": "#d1d1d1"
      },
      "loginOPT":{
        "backgroundPage": "#ffffff",
        "headerColor": "#000000",
        "subHeaderColor": "#000000",
        "primaryColor": "#2bba56",
        "inputTextColor": "#4A4A4A",
        "textColor": "#9B9B9B"
      },
      "firstTimePass":{
        "backgroundPage": "#ffffff",
        "headerColor": "#000000",
        "subHeaderColor": "#000000",
        "primaryColor": "#2bba56",
        "inputTextColor": "#4A4A4A",
        "textColor": "#9B9B9B"
      },
      "secretQuestion":{
        "backgroundPage": "#ffffff",
        "headerColor": "#000000",
        "subHeaderColor": "#000000",
        "questionText": "#000000",
        "areaBackground": "F8FCF5",
        "primaryColor": "#2bba56"
      },
      "otp":{
        "backgroundPage": "#ffffff",
        "headerColor": "#000000",
        "subHeaderColor": "#000000",
        "primaryColor": "#2bba56",
        "inputTextColor": "#4A4A4A",
        "textColor": "#9B9B9B"
      },
      "terms":{
        "backgroundPage": "#ffffff",
        "headerColor": "#000000",
        "primaryColor": "#008446",
        "backgroundCheckbox": "#b0eccf",
        "textColor": "#9B9B9B"
      },
      "wallet":{
        "backgroundPage": "#ffffff",
        "headerColor": "#000000",
        "primaryColor": "#008446",
        "backgroundCheckbox": "#b0eccf",
        "textColor": "#9B9B9B"
      }
    },
    "loginPageElements": {
      "loginField": false,
      "forgot": true,
      "anotherLogin": true,
      "fingerprint": true
    },
    "OPT_TIME": 180,
    "PopLoginMessageHiddenTime": 5,
    "PopLoginOTPMessageHiddenTime": 12,
    "PopFTPHiddenTime": 12,
    "PopQuestionsHiddenTime": 12,
    "PopOPTHiddenTime": 12,
    "PopWalletLinkHiddenTime": 12,
    "loginPageIcons": {
      "loginIcon": "assets/images/avatar.svg",
      "passwordIcon": "assets/images/lock.png",
      "logo": "assets/images/logo.png"
    },
    "TRANSLATIONS": {
      "CLOSE": {
        "ENG": "CLOSE",
        "VN": "GẦN",
        "RUS": "Закрыть"
      },
      "ACCOUNT": {
        "ENG": "Account",
        "VN": "Tài khoản",
        "RUS": "Аккаунт"
      },
      "LINK": {
        "ENG": "Link",
        "VN": "liên kết",
        "RUS": "Ссылка"
      },
      "login.fail.message": {
        "ENG": "message login",
        "VN": "Đăng nhập",
        "RUS": "Сообщение login"
      },
      "loginOTP.fail.message": {
        "ENG": "message OTP",
        "VN": "Đăng nhập",
        "RUS": "Сообщение OTP"
      },
      "FTP.fail.message": {
        "ENG": "message FTP",
        "VN": "Đăng nhập",
        "RUS": "Сообщение FTP"
      },
      "QUESTIONS.fail.message": {
        "ENG": "message QUESTIONS",
        "VN": "Đăng nhập",
        "RUS": "Сообщение QUESTIONS"
      },
      "LOG_IN": {
        "ENG": "Log in",
        "VN": "Đăng nhập",
        "RUS": "Вход"
      },
      "INCORRECT_PASSWORD": {
        "ENG": "Incorrect password",
        "VN": "Mật khẩu không chính xác",
        "RUS": "Некорректный пароль"
      },
      "LOG_DIFFERENT_ACCOUNT": {
        "ENG": "Log in with different account",
        "VN": "Đăng nhập bằng tài khoản khác",
        "RUS": "Войти с другой учетной записью"
      },
      "FORGOT_PASSWORD": {
        "ENG": "Forgot password?",
        "VN": "Quên mật khẩu?",
        "RUS": "Забыли пароль?"
      },
      "ENTER_PASSWORD": {
        "ENG": "Enter password",
        "VN": "Nhập mật khẩu",
        "RUS": "Введите пароль"
      },
      "ENTER_LOGIN": {
        "ENG": "Enter login",
        "VN": "Nhập thông tin đăng",
        "RUS": "Введите логин"
      },
      "INCORRECT_LOGIN": {
        "ENG": "Incorrect login",
        "VN": "Đăng nhập sai",
        "RUS": "Некорректный логин"
      },
      "DONT_HAVE_ACCOUNT": {
        "ENG": "Don\"t have account yet",
        "VN": "Quý khách chưa có tài khoản?",
        "RUS": "У вас еще нет учетной записи?"
      },
      "SIGN_UP_NOW": {
        "ENG": "Sign up now",
        "VN": "Đăng ký ngay",
        "RUS": "Зарегистрируйтесь сейчас"
      },
      "OPT_HEADER": {
        "ENG": "One time password",
        "VN": "Mã xác thực",
        "RUS": "Одноразовый пароль"
      },
      "OPT_SUBHEADER": {
        "ENG": "Enter OTP which is sent to phone number",
        "VN": "Quý khách vui lòng nhập mã xác thực (OTP) gửi đến số điện thoại",
        "RUS": "Введите OTP, который отправляется на номер телефона"
      },
      "VERIFICATION": {
        "ENG": "VERIFICATION",
        "VN": "Xác thực",
        "RUS": "ПРОВЕРКА"
      },
      "RESEND_OPT": {
        "ENG": "Resend OTP",
        "VN": "Gửi lại mã",
        "RUS": "Повторно отправить OTP"
      },
      "CHANGE_FTP": {
        "ENG": "Change first time password",
        "VN": "Đổi mật khẩu lần đầu",
        "RUS": "Изменить одноразовый пароль"
      },
      "PLEASE_CHANGE_FTP": {
        "ENG": "Please change password to use service",
        "VN": "Quý khách vui lòng đổi mật khẩu để tiếp tục sử dụng dịch vụ",
        "RUS": "Пожалуйста, измените пароль для использования сервиса"
      },
      "CURRENT_PASSWORD": {
        "ENG": "Current password",
        "VN": "Mật khẩu hiện tại",
        "RUS": "Текущий пароль"
      },
      "NEW_PASSWORD": {
        "ENG": "New password",
        "VN": "Mật khẩu mới",
        "RUS": "Новый пароль"
      },
      "CONFIRM_NEW_PASSWORD": {
        "ENG": "Confirm new password",
        "VN": "Nhập lại mật khẩu mới",
        "RUS": "Подтверждение нового пароля"
      },
      "NOTE_PASSWORD": {
        "ENG": "Note: your password needs to have at least 8 characters including 1 capital letter, 1 number, 1 special character",
        "VN": "Mật khẩu của Quý khách phải có tối thiểu 8 ký tự, ít nhất 1ký tự chữ in hoa, 1 ký tự số và 1 ký tự đặc biệt”",
        "RUS": "Примечание: ваш пароль должен содержать не менее 8 символов, включая 1 заглавную букву, 1 номер, 1 специальный символ"
      },
      "NEXT": {
        "ENG": "NEXT",
        "VN": "Tiếp theo",
        "RUS": "ДАЛЕЕ"
      },
      "SECURITY_QUESTIONS": {
        "ENG": "Security questions",
        "VN": "Câu hỏi bảo mật",
        "RUS": "Секретные вопросы"
      },
      "SECURITY_QUESTIONS_SUB_HEADER": {
        "ENG": "Use to protect your account with online traansactions",
        "VN": "Sử dụng để bảo vệ tài khoản của quý khách đối với những giao dịch online",
        "RUS": "Используется для защиты своей учетной записи с онлайн-транзакциями"
      },
      "MOTHER_NAME": {
        "ENG": "What is your mother\"s name?",
        "VN": "Họ và tên mẹ của bạn là gì?",
        "RUS": "Имя вашей матери?"
      },
      "PRIMARY_SCHOOL_NAME": {
        "ENG": "What is your primary school name?",
        "VN": "Tên trường tiểu học của bạn là gì?",
        "RUS": "Название начальной школы?"
      },
      "ENTER_ANSWER": {
        "ENG": "Enter answer",
        "VN": "Nhập câu trả lời",
        "RUS": "Введите ответ"
      },
      "SEND": {
        "ENG": "SEND",
        "VN": "GỬI",
        "RUS": "Отправить"
      },
      "RESEND_NEW_PASSWORD": {
        "ENG": "RESEND_NEW_PASSWORD",
        "VN": "RESEND_NEW_PASSWORD",
        "RUS": "RESEND_NEW_PASSWORD"
      },
      "code_time_over": {
        "ENG": "Allocated time for confirmation code has been expired",
        "VN": "Allocated time for confirmation code has been expired",
        "RUS": "Allocated time for confirmation code has been expired"
      },
      "sms_not_send": {
        "ENG": "SMS has not been sent for request, try again",
        "VN": "SMS has not been sent for request, try again",
        "RUS": "SMS has not been sent for request, try again"
      },
      "code_not_equal": {
        "ENG": "Entered code is not equal for request",
        "VN": "Entered code is not equal for request",
        "RUS": "Entered code is not equal for request"
      },
      "already_verified": {
        "ENG": "Not allowed to re-generate confirmation code for already verified request",
        "VN": "Not allowed to re-generate confirmation code for already verified request",
        "RUS": "Not allowed to re-generate confirmation code for already verified request"
      },
      "limit_of_regeneration": {
        "ENG": "The limit of re-generation attempts has been exceeded for request",
        "VN": "The limit of re-generation attempts has been exceeded for request",
        "RUS": "The limit of re-generation attempts has been exceeded for request"
      },
      "limit_of_attemps": {
        "ENG": "The limit of attempts has been exceeded for request",
        "VN": "The limit of attempts has been exceeded for request",
        "RUS": "The limit of attempts has been exceeded for request"
      },
      "request_time_over": {
        "ENG": "Allocated time for request has been expired for request",
        "VN": "Allocated time for request has been expired for request",
        "RUS": "Allocated time for request has been expired for request"
      },
      "TERMS_HEADER": {
        "ENG": "Title for the TERMS page",
        "VN": "Tiêu đề cho trang TERMS",
        "RUS": "Заголовок для страницы TERMS"
      },
      "TERMS_CONTENT": {
        "ENG": "Lorem ipsum dolor sit amet, consectetur adipiscing elit. Ut condimentum erat dignissim est vehicula lobortis. Pellentesque porttitor at ante eget efficitur. In porttitor augue vel risus commodo hendrerit. Nullam id feugiat ligula, eget facilisis sem. Class aptent taciti sociosqu ad litora torquent per conubia nostra, per inceptos himenaeos. Maecenas ultricies ligula enim, ac congue metus ornare non. Sed porttitor facilisis rhoncus. Duis massa augue, pretium ac cursus quis, congue et metus. Suspendisse potenti. Cras eu nunc sed lacus tempor blandit. Phasellus quis lectus risus. Proin fermentum aliquam malesuada. <br><br> Sed in velit porta, dapibus velit id, placerat urna. In hac habitasse platea dictumst. Nullam elementum nec nisi nec dapibus. Nam sit amet nunc non augue blandit placerat eu nec tortor. Nam in tristique lectus. Maecenas porttitor ullamcorper urna. In quis orci convallis, gravida justo eget, elementum nunc. Morbi pulvinar elit nec nisi mattis, id varius est interdum. Suspendisse accumsan suscipit sapien, in ultrices ante consequat eu. Nulla facilisi. Fusce mollis diam ac ante iaculis, et vehicula mi eleifend. Praesent eu elit tortor. Morbi at ex nisl. Etiam elementum ut dui nec tincidunt. Interdum et malesuada fames ac ante ipsum primis in faucibus.<br><br> Donec a turpis velit. Fusce sed est sapien. Curabitur eget accumsan justo, in laoreet sem. Morbi viverra commodo turpis. Cras pretium facilisis nisi vel vulputate. Nulla ac venenatis sem, vitae aliquet lectus. Aliquam egestas sollicitudin purus, a eleifend turpis mattis eu. Sed placerat mollis sapien, vel posuere lorem suscipit nec. In hac habitasse platea dictumst. Cras in lorem ex. Vestibulum vel libero non velit vehicula vulputate. Aliquam ut orci nec nisi auctor convallis. Vivamus in mollis nisl. In interdum odio ut odio mollis sodales. Sed rutrum, tortor ut scelerisque bibendum, velit tellus lacinia urna, sit amet fringilla lacus lectus ut felis. Cras nec efficitur justo.",
        "VN": "Lorem ipsum dolor sit Amet, consectetur adipiscing elit. Để cải thiện các chính sách xe bóng đá. vel Sed ở những ảnh hưởng chức năng. Công tác tuyên truyền hãng hàng không và Cục tiện lợi của tiếng cười. Nullam id feugiat ligula, eget facilisis sem. Lớp bắt đầu xoắn Employment bởi cuộc hôn nhân của chúng tôi, mỗi himenaeos. Vị mạnh thường quân ultricies ligula Enim, congue metus, và để tô điểm cho họ. Tuy nhiên, chất chống oxy hóa hãng hàng Zen. Bài tập về nhà tuyên truyền đại chúng, và giá của chạy một, trên cả nước và sợ hãi. Điện thoại thông minh. hồ bóng đá ngày mai, nhưng bây giờ buổi chiều dài. Nam người tốt nghiệp tiếng cười. Proin fermentum aliquam malesuada. <br><br> Nhưng trên lưới là cổng, dapibus LECTUS eget, placerat urna. Tái cấp vốn. Và không phải cho đến khi Nullam elementum eleifend et ngồi eget. Bây giờ không ngồi Amet tortor augue blandit placerat eu, cho, không phải. Trong thực tế, trong LECTUS tristique. Vị mạnh thường quân Scripps nồi. Trong một thung lũng lâm sàng, có thai chỉ cần yếu tố hiện nay. Nulla neque elit aliquet và chỉ khi bất động sản, đó là thay đổi ở lần. lớp căng thẳng nhận Sapien trong bóng rổ nhiếp ảnh đến bóng đá. Nulla. đường kính lâm sàng mềm và hệ thống phanh phía trước, và vận chuyển được khấu trừ của tôi. Hiện nay nhiệt độ cạnh tranh bóng đá. Trên cầu thủ bóng đá. Ngay cả yếu tố yêu cầu hoặc nhà phát triển đó. Đôi khi họ malesuada đói ở hương vị đầu tiên.<br><br> Thật không may, từ trường trung học, ông mong muốn. Lâm sàng nhưng là khôn ngoan. lớp Trò chuyện chỉ cần salad Laoreet. Soccer cartoon tiện xấu xí. Ngày mai, ngay cả khi giá chất chống oxy hóa Vulputate. Không có ac venenatis sem, Sơ yếu lý aliquet LECTUS. Mới nhất ớt chăm sóc thực thi pháp luật, rất nhiều khấu trừ bóng đá xấu xí. Một bất động sản Sapien mềm hoặc bộ lorem cam kết không. Tái cấp vốn. Cras trong lorem ra. Không lập trình hay xe ngoài trời miễn phí Vulputate. Aliquam Orci nec, ngoại trừ tác giả của thung lũng. Sống trong một người chơi mềm. Các thành viên mềm đôi khi ghét ghét. Tuy nhiên, trang điểm, uống tortor Út trong ligula ac, velit tellus Lacinia urna, ngồi Amet Fringilla Lacus LECTUS ut felis. Trong thời gian tới, cũng không trở thành chỉ.",
        "RUS": "Lorem ipsum dolor sit amet, consectetur adipiscing elit. Ut condimentum erat dignissim est vehicula lobortis. Pellentesque porttitor at ante eget efficitur. In porttitor augue vel risus commodo hendrerit. Nullam id feugiat ligula, eget facilisis sem. Class aptent taciti sociosqu ad litora torquent per conubia nostra, per inceptos himenaeos. Maecenas ultricies ligula enim, ac congue metus ornare non. Sed porttitor facilisis rhoncus. Duis massa augue, pretium ac cursus quis, congue et metus. Suspendisse potenti. Cras eu nunc sed lacus tempor blandit. Phasellus quis lectus risus. Proin fermentum aliquam malesuada. <br><br> Sed in velit porta, dapibus velit id, placerat urna. In hac habitasse platea dictumst. Nullam elementum nec nisi nec dapibus. Nam sit amet nunc non augue blandit placerat eu nec tortor. Nam in tristique lectus. Maecenas porttitor ullamcorper urna. In quis orci convallis, gravida justo eget, elementum nunc. Morbi pulvinar elit nec nisi mattis, id varius est interdum. Suspendisse accumsan suscipit sapien, in ultrices ante consequat eu. Nulla facilisi. Fusce mollis diam ac ante iaculis, et vehicula mi eleifend. Praesent eu elit tortor. Morbi at ex nisl. Etiam elementum ut dui nec tincidunt. Interdum et malesuada fames ac ante ipsum primis in faucibus.<br><br> Donec a turpis velit. Fusce sed est sapien. Curabitur eget accumsan justo, in laoreet sem. Morbi viverra commodo turpis. Cras pretium facilisis nisi vel vulputate. Nulla ac venenatis sem, vitae aliquet lectus. Aliquam egestas sollicitudin purus, a eleifend turpis mattis eu. Sed placerat mollis sapien, vel posuere lorem suscipit nec. In hac habitasse platea dictumst. Cras in lorem ex. Vestibulum vel libero non velit vehicula vulputate. Aliquam ut orci nec nisi auctor convallis. Vivamus in mollis nisl. In interdum odio ut odio mollis sodales. Sed rutrum, tortor ut scelerisque bibendum, velit tellus lacinia urna, sit amet fringilla lacus lectus ut felis. Cras nec efficitur justo."
      },
      "TERMS_CHECKBOX": {
        "ENG": "Checkbox test for the TERMS page",
        "VN": "Kiểm tra hộp kiểm đề cho trang TERMS",
        "RUS": "Тескт для чекбокса для страницы TERMS"
      },
      "common.success.msg":{
        "ENG": "message",
        "VN": "message",
        "RUS": "message"
      },
      "otp.fail.msg":{
        "ENG": "message",
        "VN": "message",
        "RUS": "message"
      }
    }
  },
  "default": {
    "api_url": "https://127.0.0.1:9443",
    "api_url_otp_confirm": "https://10.37.24.26:9443/security/otp/confirm",
    "api_url_list_accounts": "http://127.0.0.1:8081/accounts/get/",
    "api_url_otp_device": "http://10.37.24.26:9443/commonauth/deviceotp",
    "api_url_wallet_otp": "http://127.0.0.1:8080/otp/send",
    "api_url_otp_resend": "https://apihost.vpb:9444/security/otp/resend",
    "api_url_otp_logins": "https://10.37.24.26:9443",
    "api_url_terms": "https://10.37.24.26:9443/commonauth/terms",
    "api_url_wallet_create_link": "http://127.0.0.1:8080",
    "api_url_commands": {
      "login":{
        "ERROR": "http://127.0.0.1:8440/ERROR",
        "CANCEL": "http://127.0.0.1:8440/CANCEL",
        "REGISTER": "http://127.0.0.1:8440/REGISTER",
        "FORGOT": "http://127.0.0.1:8440/FORGOT"
      },
      "loginOPT":{
        "ERROR": "http://127.0.0.1:8440/ERROR"
      },
      "firstTimePass":{
        "ERROR": "http://127.0.0.1:8440/ERROR"
      },
      "secretQuestion":{
        "ERROR": "http://127.0.0.1:8440/ERROR"
      },
      "otp":{
        "ERROR": "http://127.0.0.1:8440/ERROR",
        "CONFIRM": "http://127.0.0.1:8440/CONFIRM",
        "CLOSE": "http://127.0.0.1:8440/CLOSE"
      },
      "wallet": {
        "ERROR": "http://127.0.0.1:8440/ERROR",
        "CLOSE": "http://127.0.0.1:8440/CLOSE"
      }
    },
    "api_url_commands_type": "reroute",
    "pageStyle": {
      "mainBackground": "linear-gradient(to left, #ffffff, #ffffff)",
      "modal":{
        "backgroundPage": "#ffffff",
        "primaryColor": "#008446",
        "textColor": "#000000"
      },
      "login":{
        "backgroundPage": "#ffffff",
        "primaryColor": "#008446",
        "inputTextColor": "#4A4A4A",
        "linkColor": "#4EA3F6",
        "textColor": "#d1d1d1"
      },
      "loginOPT":{
        "backgroundPage": "#ffffff",
        "headerColor": "#000000",
        "subHeaderColor": "#000000",
        "primaryColor": "#008446",
        "inputTextColor": "#4A4A4A",
        "textColor": "#9B9B9B"
      },
      "firstTimePass":{
        "backgroundPage": "#ffffff",
        "headerColor": "#000000",
        "subHeaderColor": "#000000",
        "primaryColor": "#2bba56",
        "inputTextColor": "#4A4A4A",
        "textColor": "#9B9B9B"
      },
      "secretQuestion":{
        "backgroundPage": "#ffffff",
        "headerColor": "#000000",
        "subHeaderColor": "#000000",
        "questionText": "#000000",
        "areaBackground": "F8FCF5",
        "primaryColor": "#2bba56"
      },
      "otp":{
        "backgroundPage": "#ffffff",
        "headerColor": "#000000",
        "subHeaderColor": "#000000",
        "primaryColor": "#008446",
        "inputTextColor": "#4A4A4A",
        "textColor": "#9B9B9B"
      },
      "terms":{
        "backgroundPage": "#ffffff",
        "headerColor": "#000000",
        "primaryColor": "#008446",
        "backgroundCheckbox": "#b0eccf",
        "textColor": "#9B9B9B"
      },
      "wallet":{
        "backgroundPage": "#ffffff",
        "headerColor": "#000000",
        "primaryColor": "#008446",
        "backgroundCheckbox": "#b0eccf",
        "textColor": "#9B9B9B"
      }
    },
    "loginPageElements": {
      "loginField": true,
      "forgot": true,
      "anotherLogin": true,
      "fingerprint": false
    },
    "OPT_TIME": 180,
    "PopLoginMessageHiddenTime": 5,
    "PopLoginOTPMessageHiddenTime": 12,
    "PopFTPHiddenTime": 12,
    "PopQuestionsHiddenTime": 12,
    "PopOPTHiddenTime": 12,
    "PopWalletLinkHiddenTime": 12,
    "loginPageIcons": {
      "loginIcon": "/assets/images/avatar.svg",
      "passwordIcon": "/assets/images/lock.png",
      "logo": "/assets/images/logo-default.png"
    },
    "TRANSLATIONS": {
      "CLOSE": {
        "ENG": "CLOSE",
        "VN": "GẦN",
        "RUS": "Закрыть"
      },
      "ACCOUNT": {
        "ENG": "Account",
        "VN": "Tài khoản",
        "RUS": "Аккаунт"
      },
      "LINK": {
        "ENG": "Link",
        "VN": "liên kết",
        "RUS": "Ссылка"
      },
      "login.fail.message": {
        "ENG": "message login",
        "VN": "Đăng nhập",
        "RUS": "Сообщение login"
      },
      "loginOTP.fail.message": {
        "ENG": "message OTP",
        "VN": "Đăng nhập",
        "RUS": "Сообщение OTP"
      },
      "FTP.fail.message": {
        "ENG": "message FTP",
        "VN": "Đăng nhập",
        "RUS": "Сообщение FTP"
      },
      "QUESTIONS.fail.message": {
        "ENG": "message QUESTIONS",
        "VN": "Đăng nhập",
        "RUS": "Сообщение QUESTIONS"
      },
      "LOG_IN": {
        "ENG": "Log in",
        "VN": "Đăng nhập",
        "RUS": "Вход"
      },
      "INCORRECT_PASSWORD": {
        "ENG": "Incorrect password",
        "VN": "Mật khẩu không chính xác",
        "RUS": "Некорректный пароль"
      },
      "LOG_DIFFERENT_ACCOUNT": {
        "ENG": "Log in with different account",
        "VN": "Đăng nhập bằng tài khoản khác",
        "RUS": "Войти с другой учетной записью"
      },
      "FORGOT_PASSWORD": {
        "ENG": "Forgot password?",
        "VN": "Quên mật khẩu?",
        "RUS": "Забыли пароль?"
      },
      "ENTER_PASSWORD": {
        "ENG": "Enter password",
        "VN": "Nhập mật khẩu",
        "RUS": "Введите пароль"
      },
      "ENTER_LOGIN": {
        "ENG": "Enter login",
        "VN": "Nhập thông tin đăng",
        "RUS": "Введите логин"
      },
      "INCORRECT_LOGIN": {
        "ENG": "Incorrect login",
        "VN": "Đăng nhập sai",
        "RUS": "Некорректный логин"
      },
      "DONT_HAVE_ACCOUNT": {
        "ENG": "Don\"t have account yet",
        "VN": "Quý khách chưa có tài khoản?",
        "RUS": "У вас еще нет учетной записи?"
      },
      "SIGN_UP_NOW": {
        "ENG": "Sign up now",
        "VN": "Đăng ký ngay",
        "RUS": "Зарегистрируйтесь сейчас"
      },
      "OPT_HEADER": {
        "ENG": "One time password",
        "VN": "Mã xác thực",
        "RUS": "Одноразовый пароль"
      },
      "OPT_SUBHEADER": {
        "ENG": "Enter OTP which is sent to phone number",
        "VN": "Quý khách vui lòng nhập mã xác thực (OTP) gửi đến số điện thoại",
        "RUS": "Введите OTP, который отправляется на номер телефона"
      },
      "VERIFICATION": {
        "ENG": "VERIFICATION",
        "VN": "Xác thực",
        "RUS": "ПРОВЕРКА"
      },
      "RESEND_OPT": {
        "ENG": "Resend OTP",
        "VN": "Gửi lại mã",
        "RUS": "Повторно отправить OTP"
      },
      "CHANGE_FTP": {
        "ENG": "Change first time password",
        "VN": "Đổi mật khẩu lần đầu",
        "RUS": "Изменить одноразовый пароль"
      },
      "PLEASE_CHANGE_FTP": {
        "ENG": "Please change password to use service",
        "VN": "Quý khách vui lòng đổi mật khẩu để tiếp tục sử dụng dịch vụ",
        "RUS": "Пожалуйста, измените пароль для использования сервиса"
      },
      "CURRENT_PASSWORD": {
        "ENG": "Current password",
        "VN": "Mật khẩu hiện tại",
        "RUS": "Текущий пароль"
      },
      "NEW_PASSWORD": {
        "ENG": "New password",
        "VN": "Mật khẩu mới",
        "RUS": "Новый пароль"
      },
      "CONFIRM_NEW_PASSWORD": {
        "ENG": "Confirm new password",
        "VN": "Nhập lại mật khẩu mới",
        "RUS": "Подтверждение нового пароля"
      },
      "NOTE_PASSWORD": {
        "ENG": "Note: your password needs to have at least 8 characters including 1 capital letter, 1 number, 1 special character",
        "VN": "Mật khẩu của Quý khách phải có tối thiểu 8 ký tự, ít nhất 1ký tự chữ in hoa, 1 ký tự số và 1 ký tự đặc biệt”",
        "RUS": "Примечание: ваш пароль должен содержать не менее 8 символов, включая 1 заглавную букву, 1 номер, 1 специальный символ"
      },
      "NEXT": {
        "ENG": "NEXT",
        "VN": "Tiếp theo",
        "RUS": "ДАЛЕЕ"
      },
      "SECURITY_QUESTIONS": {
        "ENG": "Security questions",
        "VN": "Câu hỏi bảo mật",
        "RUS": "Секретные вопросы"
      },
      "SECURITY_QUESTIONS_SUB_HEADER": {
        "ENG": "Use to protect your account with online traansactions",
        "VN": "Sử dụng để bảo vệ tài khoản của quý khách đối với những giao dịch online",
        "RUS": "Используется для защиты своей учетной записи с онлайн-транзакциями"
      },
      "MOTHER_NAME": {
        "ENG": "What is your mother\"s name?",
        "VN": "Họ và tên mẹ của bạn là gì?",
        "RUS": "Имя вашей матери?"
      },
      "PRIMARY_SCHOOL_NAME": {
        "ENG": "What is your primary school name?",
        "VN": "Tên trường tiểu học của bạn là gì?",
        "RUS": "Название начальной школы?"
      },
      "ENTER_ANSWER": {
        "ENG": "Enter answer",
        "VN": "Nhập câu trả lời",
        "RUS": "Введите ответ"
      },
      "SEND": {
        "ENG": "SEND",
        "VN": "GỬI",
        "RUS": "Отправить"
      },
      "code_time_over": {
        "ENG": "Allocated time for confirmation code has been expired",
        "VN": "Allocated time for confirmation code has been expired",
        "RUS": "Allocated time for confirmation code has been expired"
      },
      "sms_not_send": {
        "ENG": "SMS has not been sent for request, try again",
        "VN": "SMS has not been sent for request, try again",
        "RUS": "SMS has not been sent for request, try again"
      },
      "code_not_equal": {
        "ENG": "Entered code is not equal for request",
        "VN": "Entered code is not equal for request",
        "RUS": "Entered code is not equal for request"
      },
      "already_verified": {
        "ENG": "Not allowed to re-generate confirmation code for already verified request",
        "VN": "Not allowed to re-generate confirmation code for already verified request",
        "RUS": "Not allowed to re-generate confirmation code for already verified request"
      },
      "limit_of_regeneration": {
        "ENG": "The limit of re-generation attempts has been exceeded for request",
        "VN": "The limit of re-generation attempts has been exceeded for request",
        "RUS": "The limit of re-generation attempts has been exceeded for request"
      },
      "limit_of_attemps": {
        "ENG": "The limit of attempts has been exceeded for request",
        "VN": "The limit of attempts has been exceeded for request",
        "RUS": "The limit of attempts has been exceeded for request"
      },
      "request_time_over": {
        "ENG": "Allocated time for request has been expired for request",
        "VN": "Allocated time for request has been expired for request",
        "RUS": "Allocated time for request has been expired for request"
      },
      "TERMS_HEADER": {
        "ENG": "Title for the TERMS page",
        "VN": "Tiêu đề cho trang TERMS",
        "RUS": "Заголовок для страницы TERMS"
      },
      "TERMS_CONTENT": {
        "ENG": "Lorem ipsum dolor sit amet, consectetur adipiscing elit. Ut condimentum erat dignissim est vehicula lobortis. Pellentesque porttitor at ante eget efficitur. In porttitor augue vel risus commodo hendrerit. Nullam id feugiat ligula, eget facilisis sem. Class aptent taciti sociosqu ad litora torquent per conubia nostra, per inceptos himenaeos. Maecenas ultricies ligula enim, ac congue metus ornare non. Sed porttitor facilisis rhoncus. Duis massa augue, pretium ac cursus quis, congue et metus. Suspendisse potenti. Cras eu nunc sed lacus tempor blandit. Phasellus quis lectus risus. Proin fermentum aliquam malesuada. <br><br> Sed in velit porta, dapibus velit id, placerat urna. In hac habitasse platea dictumst. Nullam elementum nec nisi nec dapibus. Nam sit amet nunc non augue blandit placerat eu nec tortor. Nam in tristique lectus. Maecenas porttitor ullamcorper urna. In quis orci convallis, gravida justo eget, elementum nunc. Morbi pulvinar elit nec nisi mattis, id varius est interdum. Suspendisse accumsan suscipit sapien, in ultrices ante consequat eu. Nulla facilisi. Fusce mollis diam ac ante iaculis, et vehicula mi eleifend. Praesent eu elit tortor. Morbi at ex nisl. Etiam elementum ut dui nec tincidunt. Interdum et malesuada fames ac ante ipsum primis in faucibus.<br><br> Donec a turpis velit. Fusce sed est sapien. Curabitur eget accumsan justo, in laoreet sem. Morbi viverra commodo turpis. Cras pretium facilisis nisi vel vulputate. Nulla ac venenatis sem, vitae aliquet lectus. Aliquam egestas sollicitudin purus, a eleifend turpis mattis eu. Sed placerat mollis sapien, vel posuere lorem suscipit nec. In hac habitasse platea dictumst. Cras in lorem ex. Vestibulum vel libero non velit vehicula vulputate. Aliquam ut orci nec nisi auctor convallis. Vivamus in mollis nisl. In interdum odio ut odio mollis sodales. Sed rutrum, tortor ut scelerisque bibendum, velit tellus lacinia urna, sit amet fringilla lacus lectus ut felis. Cras nec efficitur justo.",
        "VN": "Lorem ipsum dolor sit Amet, consectetur adipiscing elit. Để cải thiện các chính sách xe bóng đá. vel Sed ở những ảnh hưởng chức năng. Công tác tuyên truyền hãng hàng không và Cục tiện lợi của tiếng cười. Nullam id feugiat ligula, eget facilisis sem. Lớp bắt đầu xoắn Employment bởi cuộc hôn nhân của chúng tôi, mỗi himenaeos. Vị mạnh thường quân ultricies ligula Enim, congue metus, và để tô điểm cho họ. Tuy nhiên, chất chống oxy hóa hãng hàng Zen. Bài tập về nhà tuyên truyền đại chúng, và giá của chạy một, trên cả nước và sợ hãi. Điện thoại thông minh. hồ bóng đá ngày mai, nhưng bây giờ buổi chiều dài. Nam người tốt nghiệp tiếng cười. Proin fermentum aliquam malesuada. <br><br> Nhưng trên lưới là cổng, dapibus LECTUS eget, placerat urna. Tái cấp vốn. Và không phải cho đến khi Nullam elementum eleifend et ngồi eget. Bây giờ không ngồi Amet tortor augue blandit placerat eu, cho, không phải. Trong thực tế, trong LECTUS tristique. Vị mạnh thường quân Scripps nồi. Trong một thung lũng lâm sàng, có thai chỉ cần yếu tố hiện nay. Nulla neque elit aliquet và chỉ khi bất động sản, đó là thay đổi ở lần. lớp căng thẳng nhận Sapien trong bóng rổ nhiếp ảnh đến bóng đá. Nulla. đường kính lâm sàng mềm và hệ thống phanh phía trước, và vận chuyển được khấu trừ của tôi. Hiện nay nhiệt độ cạnh tranh bóng đá. Trên cầu thủ bóng đá. Ngay cả yếu tố yêu cầu hoặc nhà phát triển đó. Đôi khi họ malesuada đói ở hương vị đầu tiên.<br><br> Thật không may, từ trường trung học, ông mong muốn. Lâm sàng nhưng là khôn ngoan. lớp Trò chuyện chỉ cần salad Laoreet. Soccer cartoon tiện xấu xí. Ngày mai, ngay cả khi giá chất chống oxy hóa Vulputate. Không có ac venenatis sem, Sơ yếu lý aliquet LECTUS. Mới nhất ớt chăm sóc thực thi pháp luật, rất nhiều khấu trừ bóng đá xấu xí. Một bất động sản Sapien mềm hoặc bộ lorem cam kết không. Tái cấp vốn. Cras trong lorem ra. Không lập trình hay xe ngoài trời miễn phí Vulputate. Aliquam Orci nec, ngoại trừ tác giả của thung lũng. Sống trong một người chơi mềm. Các thành viên mềm đôi khi ghét ghét. Tuy nhiên, trang điểm, uống tortor Út trong ligula ac, velit tellus Lacinia urna, ngồi Amet Fringilla Lacus LECTUS ut felis. Trong thời gian tới, cũng không trở thành chỉ.",
        "RUS": "Lorem ipsum dolor sit amet, consectetur adipiscing elit. Ut condimentum erat dignissim est vehicula lobortis. Pellentesque porttitor at ante eget efficitur. In porttitor augue vel risus commodo hendrerit. Nullam id feugiat ligula, eget facilisis sem. Class aptent taciti sociosqu ad litora torquent per conubia nostra, per inceptos himenaeos. Maecenas ultricies ligula enim, ac congue metus ornare non. Sed porttitor facilisis rhoncus. Duis massa augue, pretium ac cursus quis, congue et metus. Suspendisse potenti. Cras eu nunc sed lacus tempor blandit. Phasellus quis lectus risus. Proin fermentum aliquam malesuada. <br><br> Sed in velit porta, dapibus velit id, placerat urna. In hac habitasse platea dictumst. Nullam elementum nec nisi nec dapibus. Nam sit amet nunc non augue blandit placerat eu nec tortor. Nam in tristique lectus. Maecenas porttitor ullamcorper urna. In quis orci convallis, gravida justo eget, elementum nunc. Morbi pulvinar elit nec nisi mattis, id varius est interdum. Suspendisse accumsan suscipit sapien, in ultrices ante consequat eu. Nulla facilisi. Fusce mollis diam ac ante iaculis, et vehicula mi eleifend. Praesent eu elit tortor. Morbi at ex nisl. Etiam elementum ut dui nec tincidunt. Interdum et malesuada fames ac ante ipsum primis in faucibus.<br><br> Donec a turpis velit. Fusce sed est sapien. Curabitur eget accumsan justo, in laoreet sem. Morbi viverra commodo turpis. Cras pretium facilisis nisi vel vulputate. Nulla ac venenatis sem, vitae aliquet lectus. Aliquam egestas sollicitudin purus, a eleifend turpis mattis eu. Sed placerat mollis sapien, vel posuere lorem suscipit nec. In hac habitasse platea dictumst. Cras in lorem ex. Vestibulum vel libero non velit vehicula vulputate. Aliquam ut orci nec nisi auctor convallis. Vivamus in mollis nisl. In interdum odio ut odio mollis sodales. Sed rutrum, tortor ut scelerisque bibendum, velit tellus lacinia urna, sit amet fringilla lacus lectus ut felis. Cras nec efficitur justo."
      },
      "TERMS_CHECKBOX": {
        "ENG": "Checkbox test for the TERMS page",
        "VN": "Kiểm tra hộp kiểm đề cho trang TERMS",
        "RUS": "Тескт для чекбокса для страницы TERMS"
      },
      "common.success.msg":{
        "ENG": "message",
        "VN": "message",
        "RUS": "message"
      },
      "otp.fail.msg":{
        "ENG": "message",
        "VN": "message",
        "RUS": "message"
      }
    }
  }
}
